{
  "danceability": 0.414,
  "energy": 0.404,
  "key": 0,
  "loudness": -9.928,
  "mode": 0,
  "speechiness": 0.0499,
  "acousticness": 0.271,
  "instrumentalness": 0,
  "liveness": 0.3,
  "valence": 0.224,
  "tempo": 71.105,
  "type": "audio_features",
  "id": "4u7EnebtmKWzUH433cf5Qv",
  "uri": "spotify:track:4u7EnebtmKWzUH433cf5Qv",
  "track_href": "https://api.spotify.com/v1/tracks/4u7EnebtmKWzUH433cf5Qv",
  "analysis_url": "https://api.spotify.com/v1/audio-analysis/4u7EnebtmKWzUH433cf5Qv",
  "duration_ms": 354320,
  "time_signature": 4
}
